Text as Data: Problem Set 01
…
# to show the classify above is actually unreasonable
extremes[,c("positive","negative")]

# A tibble: 40 × 2
   positive negative
      <dbl>    <dbl>
 1      571      228
 2      376      151
 3      270      104
 4      401      272
 5       47        8
 6       35        9
 7       26        1
 8       26        3
 9       21        1
10       23        4
# ℹ 30 more rows
…
